%YAML 1.1
%TAG !u! tag:unity3d.com,2011:
--- !u!687078895 &4343727234628468602
SpriteAtlas:
  m_ObjectHideFlags: 0
  m_CorrespondingSourceObject: {fileID: 0}
  m_PrefabInstance: {fileID: 0}
  m_PrefabAsset: {fileID: 0}
  m_Name: Tiles
  m_EditorData:
    serializedVersion: 2
    textureSettings:
      serializedVersion: 2
      anisoLevel: 1
      compressionQuality: 50
      maxTextureSize: 2048
      textureCompression: 0
      filterMode: 0
      generateMipMaps: 0
      readable: 0
      crunchedCompression: 0
      sRGB: 1
    platformSettings:
    - serializedVersion: 3
      m_BuildTarget: DefaultTexturePlatform
      m_MaxTextureSize: 256
      m_ResizeAlgorithm: 0
      m_TextureFormat: -1
      m_TextureCompression: 0
      m_CompressionQuality: 50
      m_CrunchedCompression: 0
      m_AllowsAlphaSplitting: 0
      m_Overridden: 0
      m_AndroidETC2FallbackOverride: 0
      m_ForceMaximumCompressionQuality_BC6H_BC7: 1
    packingSettings:
      serializedVersion: 2
      padding: 4
      blockOffset: 1
      allowAlphaSplitting: 0
      enableRotation: 1
      enableTightPacking: 1
    variantMultiplier: 1
    packables:
    - {fileID: 102900000, guid: e96b7d26bcf194f46acdc8ba4518f8f0, type: 3}
    totalSpriteSurfaceArea: 22618
    bindAsDefault: 1
    storedHash:
      serializedVersion: 2
      Hash: 00000000000000000000000000000000
  m_MasterAtlas: {fileID: 0}
  m_PackedSprites:
  - {fileID: 21300042, guid: 346d1395d4f082f4bb3bae1816d86407, type: 3}
  - {fileID: 21300040, guid: 346d1395d4f082f4bb3bae1816d86407, type: 3}
  - {fileID: 21300046, guid: 346d1395d4f082f4bb3bae1816d86407, type: 3}
  - {fileID: 21300044, guid: 346d1395d4f082f4bb3bae1816d86407, type: 3}
  - {fileID: 21300018, guid: 346d1395d4f082f4bb3bae1816d86407, type: 3}
  - {fileID: 21300050, guid: 346d1395d4f082f4bb3bae1816d86407, type: 3}
  - {fileID: 21300016, guid: 346d1395d4f082f4bb3bae1816d86407, type: 3}
  - {fileID: 21300048, guid: 346d1395d4f082f4bb3bae1816d86407, type: 3}
  - {fileID: 21300054, guid: 346d1395d4f082f4bb3bae1816d86407, type: 3}
  - {fileID: 21300094, guid: 346d1395d4f082f4bb3bae1816d86407, type: 3}
  - {fileID: 21300052, guid: 346d1395d4f082f4bb3bae1816d86407, type: 3}
  - {fileID: 21300100, guid: 346d1395d4f082f4bb3bae1816d86407, type: 3}
  - {fileID: 21300092, guid: 346d1395d4f082f4bb3bae1816d86407, type: 3}
  - {fileID: 21300058, guid: 346d1395d4f082f4bb3bae1816d86407, type: 3}
  - {fileID: 21300102, guid: 346d1395d4f082f4bb3bae1816d86407, type: 3}
  - {fileID: 21300090, guid: 346d1395d4f082f4bb3bae1816d86407, type: 3}
  - {fileID: 21300056, guid: 346d1395d4f082f4bb3bae1816d86407, type: 3}
  - {fileID: 21300104, guid: 346d1395d4f082f4bb3bae1816d86407, type: 3}
  - {fileID: 21300088, guid: 346d1395d4f082f4bb3bae1816d86407, type: 3}
  - {fileID: 21300106, guid: 346d1395d4f082f4bb3bae1816d86407, type: 3}
  - {fileID: 21300086, guid: 346d1395d4f082f4bb3bae1816d86407, type: 3}
  - {fileID: 21300084, guid: 346d1395d4f082f4bb3bae1816d86407, type: 3}
  - {fileID: 21300002, guid: 346d1395d4f082f4bb3bae1816d86407, type: 3}
  - {fileID: 21300082, guid: 346d1395d4f082f4bb3bae1816d86407, type: 3}
  - {fileID: 21300000, guid: 346d1395d4f082f4bb3bae1816d86407, type: 3}
  - {fileID: 21300080, guid: 346d1395d4f082f4bb3bae1816d86407, type: 3}
  - {fileID: 21300006, guid: 346d1395d4f082f4bb3bae1816d86407, type: 3}
  - {fileID: 21300004, guid: 346d1395d4f082f4bb3bae1816d86407, type: 3}
  - {fileID: 21300010, guid: 346d1395d4f082f4bb3bae1816d86407, type: 3}
  - {fileID: 21300008, guid: 346d1395d4f082f4bb3bae1816d86407, type: 3}
  - {fileID: 21300014, guid: 346d1395d4f082f4bb3bae1816d86407, type: 3}
  - {fileID: 21300012, guid: 346d1395d4f082f4bb3bae1816d86407, type: 3}
  - {fileID: 21300098, guid: 346d1395d4f082f4bb3bae1816d86407, type: 3}
  - {fileID: 21300096, guid: 346d1395d4f082f4bb3bae1816d86407, type: 3}
  - {fileID: 21300036, guid: 346d1395d4f082f4bb3bae1816d86407, type: 3}
  - {fileID: 21300038, guid: 346d1395d4f082f4bb3bae1816d86407, type: 3}
  - {fileID: 21300020, guid: 346d1395d4f082f4bb3bae1816d86407, type: 3}
  - {fileID: 21300022, guid: 346d1395d4f082f4bb3bae1816d86407, type: 3}
  - {fileID: 21300024, guid: 346d1395d4f082f4bb3bae1816d86407, type: 3}
  - {fileID: 21300026, guid: 346d1395d4f082f4bb3bae1816d86407, type: 3}
  - {fileID: 21300028, guid: 346d1395d4f082f4bb3bae1816d86407, type: 3}
  - {fileID: 21300076, guid: 346d1395d4f082f4bb3bae1816d86407, type: 3}
  - {fileID: 21300030, guid: 346d1395d4f082f4bb3bae1816d86407, type: 3}
  - {fileID: 21300078, guid: 346d1395d4f082f4bb3bae1816d86407, type: 3}
  - {fileID: 21300032, guid: 346d1395d4f082f4bb3bae1816d86407, type: 3}
  - {fileID: 21300072, guid: 346d1395d4f082f4bb3bae1816d86407, type: 3}
  - {fileID: 21300034, guid: 346d1395d4f082f4bb3bae1816d86407, type: 3}
  - {fileID: 21300074, guid: 346d1395d4f082f4bb3bae1816d86407, type: 3}
  - {fileID: 21300068, guid: 346d1395d4f082f4bb3bae1816d86407, type: 3}
  - {fileID: 21300070, guid: 346d1395d4f082f4bb3bae1816d86407, type: 3}
  - {fileID: 21300064, guid: 346d1395d4f082f4bb3bae1816d86407, type: 3}
  - {fileID: 21300066, guid: 346d1395d4f082f4bb3bae1816d86407, type: 3}
  - {fileID: 21300060, guid: 346d1395d4f082f4bb3bae1816d86407, type: 3}
  - {fileID: 21300062, guid: 346d1395d4f082f4bb3bae1816d86407, type: 3}
  - {fileID: 21300002, guid: e27700cef3068c64eb7653271808be96, type: 3}
  - {fileID: 21300000, guid: e27700cef3068c64eb7653271808be96, type: 3}
  - {fileID: 21300006, guid: e27700cef3068c64eb7653271808be96, type: 3}
  - {fileID: 21300004, guid: e27700cef3068c64eb7653271808be96, type: 3}
  - {fileID: 21300010, guid: e27700cef3068c64eb7653271808be96, type: 3}
  - {fileID: 21300008, guid: e27700cef3068c64eb7653271808be96, type: 3}
  m_PackedSpriteNamesToIndex:
  - Tilesheet_21
  - Tilesheet_20
  - Tilesheet_23
  - Tilesheet_22
  - Tilesheet_9
  - Tilesheet_25
  - Tilesheet_8
  - Tilesheet_24
  - Tilesheet_27
  - Tilesheet_47
  - Tilesheet_26
  - Tilesheet_50
  - Tilesheet_46
  - Tilesheet_29
  - Tilesheet_51
  - Tilesheet_45
  - Tilesheet_28
  - Tilesheet_52
  - Tilesheet_44
  - Tilesheet_53
  - Tilesheet_43
  - Tilesheet_42
  - Tilesheet_1
  - Tilesheet_41
  - Tilesheet_0
  - Tilesheet_40
  - Tilesheet_3
  - Tilesheet_2
  - Tilesheet_5
  - Tilesheet_4
  - Tilesheet_7
  - Tilesheet_6
  - Tilesheet_49
  - Tilesheet_48
  - Tilesheet_18
  - Tilesheet_19
  - Tilesheet_10
  - Tilesheet_11
  - Tilesheet_12
  - Tilesheet_13
  - Tilesheet_14
  - Tilesheet_38
  - Tilesheet_15
  - Tilesheet_39
  - Tilesheet_16
  - Tilesheet_36
  - Tilesheet_17
  - Tilesheet_37
  - Tilesheet_34
  - Tilesheet_35
  - Tilesheet_32
  - Tilesheet_33
  - Tilesheet_30
  - Tilesheet_31
  - PlayerTest_1
  - PlayerTest_0
  - PlayerTest_3
  - PlayerTest_2
  - PlayerTest_5
  - PlayerTest_4
  m_Tag: Tiles
  m_IsVariant: 0
